lab4/part1/mult/sim/transcript
# //  Questa Sim-64
# //  Version 2020.4 linux_x86_64 Oct 13 2020
# //
# //  Copyright 1991-2020 Mentor Graphics Corporation
# //  All Rights Reserved.
# //
# //  QuestaSim and its associated documentation contain trade
# //  secrets and commercial or financial information that are the property of
# //  Mentor Graphics Corporation and are privileged, confidential,
# //  and exempt from disclosure under the Freedom of Information Act,
# //  5 U.S.C. Section 552. Furthermore, this information
# //  is prohibited from disclosure under the Trade Secrets Act,
# //  18 U.S.C. Section 1905.
# //
vsim -c -sv_seed random -do sim.do alu_tb +n100
# vsim -c -sv_seed random -do "sim.do" alu_tb "+n100" 
# Start time: 00:32:32 on Apr 18,2023
# ** Note: (vsim-8009) Loading existing optimized design _opt
# Loading sv_std.std
# Loading work.alu_tb_sv_unit(fast)
# Loading work.alu_tb(fast)
# Loading work.alu_wrap(fast)
# Loading work.alu_if(fast)
# Sv_Seed = 3122209453
# do sim.do
# [CONFIG] Number of test cycles set to 100
# 
# TEST #1 - Launching ALU quiet test...
# TEST #1 - Test completed!
# TEST #1 - Functional coverage: 75.78%
# 
# TEST #2 - Launching ALU verbose test...
# [   1025] a: 011010000100010011011011 ( 6833371) | b: 010101100101100101001110 ( 5658958) | res: 001000110010101110000001010001110001110110111010 ( 38669759487418)
# [   1035] a: 011110100111100111101001 ( 8026601) | b: 111000110001000001111000 (14880888) | res: 011011001010000111111010101000101011010100111000 (119442950501688)
# [   1045] a: 000000101110110101111101 (  191869) | b: 000010110001110110100100 (  728484) | res: 000000000010000010001011001001100100110100010100 (   139773496596)
# [   1055] a: 010100111100000000101101 ( 5488685) | b: 110010001100111000011111 (13159967) | res: 010000011011000110010001111100000111101101110011 ( 72230913473395)
# [   1065] a: 000010100100001010100001 (  672417) | b: 101011100000010111100000 (11404768) | res: 000001101111100110000101101101010111000111100000 (  7668759884256)
# [   1075] a: 010101101100100111010100 ( 5687764) | b: 100000110110011111101110 ( 8611822) | res: 001011001000110010000011010111111110111100011000 ( 48982011146008)
# [   1085] a: 001110011100100000001001 ( 3786761) | b: 101100101011100110000111 (11712903) | res: 001010000101011011110110010010001111110110111111 ( 44353964277183)
# [   1095] a: 101000110101001001111111 (10703487) | b: 111011011100100101111100 (15583612) | res: 100101111011001111101010011101001010110010000100 (166798988455044)
# [   1105] a: 001011111110100101001000 ( 3139912) | b: 110001100010000100010110 (12984598) | res: 001001010001010010011110111000000101010000110000 ( 40770495075376)
# [   1115] a: 011000011110111010000010 ( 6418050) | b: 011010000001010000100001 ( 6820897) | res: 001001111101000010011000000100011110011011000010 ( 43776857990850)
# [   1125] a: 011111110111000010001110 ( 8351886) | b: 010010011111010100101110 ( 4846894) | res: 001001001101000100100110000111000001111110000100 ( 40480706142084)
# [   1135] a: 011011110101111101001100 ( 7298892) | b: 011000011101111101111101 ( 6414205) | res: 001010101001010001010110001100001011110000011100 ( 46816589560860)
# [   1145] a: 000001101100110110101110 (  445870) | b: 011010110100111010001010 ( 7032458) | res: 000000101101101000001110000011111110001111001100 (  3135562048460)
# [   1155] a: 111010111011111111000001 (15450049) | b: 011110011110101001010110 ( 7989846) | res: 011100000100010101101110101100011101010011010110 (123443512202454)
# [   1165] a: 101101100111001100001101 (11957005) | b: 100101011010100110101111 ( 9808303) | res: 011010101010100111100101001111010011101011100011 (117277928012515)
# [   1175] a: 001100010101011111000101 ( 3233733) | b: 001011000010011000111010 ( 2893370) | res: 000010001000001001110100000100010010000010100010 (  9356386050210)
# [   1185] a: 000010110010110111011000 (  732632) | b: 001110110000011011000000 ( 3868352) | res: 000000101001001111011100001111010111001000000000 (  2834078462464)
# [   1195] a: 110000101010011001000000 (12756544) | b: 001101001101000100101000 ( 3461416) | res: 001010000010100011001101001001000011101000000000 ( 44155705506304)
# [   1205] a: 111010111000000011111001 (15433977) | b: 110011011110010101000010 (13493570) | res: 101111010110100100101110011110101111110100110010 (208259449027890)
# [   1215] a: 011010100101111001011001 ( 6970969) | b: 000110011000000110000101 ( 1671557) | res: 000010101001100100000111011111101101110100111101 ( 11652372028733)
# [   1225] a: 001010101001111101010100 ( 2793300) | b: 100110101000101111010101 (10128341) | res: 000110011011101100100000100000010010110011100100 ( 28291494915300)
# [   1235] a: 111110000010010101011101 (16262493) | b: 010000111000011111011111 ( 4425695) | res: 010000010111010101111011001100111001011100000011 ( 71972833957635)
# [   1245] a: 011011101100010110000100 ( 7259524) | b: 011101010000111001010000 ( 7671376) | res: 001100101010011001110110101111101111000101000000 ( 55690538185024)
# [   1255] a: 010000001011101100110110 ( 4242230) | b: 011110001000110100001111 ( 7900431) | res: 000111100111101101101100001101111011011000101010 ( 33515445401130)
# [   1265] a: 101100100001001110011011 (11670427) | b: 100000101100001110000101 ( 8569733) | res: 010110101111010111110110001010010100000010000111 (100012443385991)
# [   1275] a: 110101110000101111101101 (14093293) | b: 001011101101111000010110 ( 3071510) | res: 001001110101111010110011011010001000110001011110 ( 43287690382430)
# [   1285] a: 110111000111111011100011 (14450403) | b: 011101010110011101111101 ( 7694205) | res: 011001010001111100100000011101100100100111010111 (111184363014615)
# [   1295] a: 001010001100010100101111 ( 2671919) | b: 101001011011110101101000 (10861928) | res: 000110100110010101000001011011101100111000011000 ( 29022191799832)
# [   1305] a: 001001101001101101000100 ( 2530116) | b: 010100111100100111100101 ( 5491173) | res: 000011001010001011001001011111010100011111010100 ( 13893304666068)
# [   1315] a: 000001001011000001011000 (  307288) | b: 000111100011000111111101 ( 1978877) | res: 000000001000110110010100101100110001111011111000 (   608085155576)
# [   1325] a: 011010001110011110110001 ( 6875057) | b: 011100101000110011101100 ( 7507180) | res: 001011101111000011101100001111000110001100101100 ( 51612290409260)
# [   1335] a: 010101100101000111000001 ( 5657025) | b: 011001010110000000000001 ( 6643713) | res: 001000100010111010100000001000111011000111000001 ( 37583650533825)
# [   1345] a: 001011101110000100001110 ( 3072270) | b: 001100110100010110101101 ( 3360173) | res: 000010010110001110011000001000001101110001110110 ( 10323358702710)
# [   1355] a: 111010000011100000110111 (15218743) | b: 111001100000000101001011 (15073611) | res: 110100001010001110101101101010101010111100011101 (229401411890973)
# [   1365] a: 100011011111001010111000 ( 9302712) | b: 111100001000001001011000 (15762008) | res: 100001010101101111010010100011001101111101000000 (146629420965696)
# [   1375] a: 011101111000000000111010 ( 7831610) | b: 110111111110101010100110 (14674598) | res: 011010001000011000111011001110000010100110011100 (114925728442780)
# [   1385] a: 101110111100110101100001 (12307809) | b: 101110111011000110100100 (12300708) | res: 100010011011000101010111001010101010001100100100 (151394764628772)
# [   1395] a: 111111001001111110010011 (16555923) | b: 111101111011111001100001 (16236129) | res: 111101000111100111010100111111001001000010110011 (268804101542067)
# [   1405] a: 010000000110101111001110 ( 4221902) | b: 001000010000100010000010 ( 2164866) | res: 000010000101000000001001101000110010111010011100 (  9139852095132)
# [   1415] a: 010001101001111101111101 ( 4628349) | b: 011000110111001101111111 ( 6517631) | res: 000110110110111110001010000001010100011000000011 ( 30165870921219)
# [   1425] a: 001011100110001111011110 ( 3040222) | b: 000101110011001101100011 ( 1520483) | res: 000001000011010001001000110001111101100011011010 (  4622605867226)
# [   1435] a: 000111110000011010011010 ( 2033306) | b: 000011011101000001000001 (  905281) | res: 000000011010110010010011000011111100110100011010 (  1840713288986)
# [   1445] a: 100011101100000011001000 ( 9355464) | b: 111011001110111010000110 (15527558) | res: 100001000001111010111010010100101101100010110000 (145267509876912)
# [   1455] a: 010010010111000100111100 ( 4813116) | b: 100101000101000011011100 ( 9720028) | res: 001010101000110010101001001100000000111110010000 ( 46783622287248)
# [   1465] a: 101110000000110011100100 (12061924) | b: 110110110011110010011011 (14367899) | res: 100111011001111010011001100000010011111000001100 (173304505777676)
# [   1475] a: 111010111111101111110111 (15465463) | b: 111011111100000110100110 (15712678) | res: 110111010000001010111101100100111001100100101010 (243003840239914)
# [   1485] a: 010111110011110101111100 ( 6241660) | b: 101110100000010010001010 (12190858) | res: 010001010011010001011100011001010001010011011000 ( 76091190744280)
# [   1495] a: 100100110011101011000000 ( 9648832) | b: 110110101011000111011001 (14332377) | res: 011111011100011001001111111010111000110011000000 (138290697833664)
# [   1505] a: 001000001011011000001101 ( 2143757) | b: 011110010100110110001111 ( 7949711) | res: 000011110111111111110101001011001001101001000011 ( 17042248604227)
# [   1515] a: 111001111001001100110101 (15176501) | b: 001111101010111001010011 ( 4107859) | res: 001110001011001101010111111110001100000000101111 ( 62342926221359)
# [   1525] a: 101011100000101011100010 (11406050) | b: 101111110001010001110100 (12522612) | res: 100000011110100000000110010101001001011001101000 (142833538602600)
# [   1535] a: 100110111111101011111111 (10222335) | b: 001011111110111111100110 ( 3141606) | res: 000111010011010101000000010010001001001000011010 ( 32114548970010)
# [   1545] a: 000001100111010100000010 (  423170) | b: 101100011010010100000100 (11642116) | res: 000001000111101100001111111001100001111000001000 (  4926594227720)
# [   1555] a: 010010001001000111000010 ( 4755906) | b: 110001100100000000011001 (12992537) | res: 001110000011001011100111100100101011101111110010 ( 61791284673522)
# [   1565] a: 110000010011011011010101 (12662485) | b: 101101011000000001110101 (11894901) | res: 100010001111110010111000010100011000111101011001 (150619005488985)
# [   1575] a: 000110100110111000101101 ( 1732141) | b: 001010101111011001000101 ( 2815557) | res: 000001000110111110000000011000001111000000100001 (  4876941717537)
# [   1585] a: 110111111011110011100000 (14662880) | b: 110111000101100100001000 (14440712) | res: 110000001001010000100000001001111100011100000000 (211742427170560)
# [   1595] a: 101101110101001011110111 (12014327) | b: 111110001011000110110000 (16298416) | res: 101100100001011110011101101011011101000011010000 (195814499406032)
# [   1605] a: 100001011011001110101101 ( 8762285) | b: 111111111010001110101100 (16753580) | res: 100001011000001101110100100011101101111100111100 (146799642730300)
# [   1615] a: 000010000110101010010101 (  551573) | b: 111000101111001100001111 (14873359) | res: 000001110111011000010101001100111010110110111011 (  8203743243707)
# [   1625] a: 111000100000111000110010 (14814770) | b: 001101000000100010000011 ( 3410051) | res: 001011011111001001100110010001101101001110010110 ( 50519121253270)
# [   1635] a: 101101100101111110010100 (11952020) | b: 011001110010100111000001 ( 6760897) | res: 010010010111111000110011010110001100001010010100 ( 80806376161940)
# [   1645] a: 110010000011001001111010 (13120122) | b: 100110001101111000110101 (10018357) | res: 011101111000101110111101101010000011111101000010 (131442066079554)
# [   1655] a: 011010011001000010111101 ( 6918333) | b: 010111010010100000100011 ( 6105123) | res: 001001100110101000100001101101010101000111010111 ( 42237273919959)
# [   1665] a: 011101010011011111100010 ( 7682018) | b: 010111001010111001111000 ( 6073976) | res: 001010100110111111111000001001011100110111110000 ( 46660392963568)
# [   1675] a: 011010111101000110100110 ( 7066022) | b: 001101011011100100101010 ( 3520810) | res: 000101101010000001100011100011110101101100111100 ( 24878120917820)
# [   1685] a: 111010110111011011010010 (15431378) | b: 101011001000001000001000 (11305480) | res: 100111101010101101101110110010100101101010010000 (174459135351440)
# [   1695] a: 111011010011011010010000 (15546000) | b: 000111101000100111000111 ( 2001351) | res: 000111000100110000001111011110000111100111110000 ( 31113002646000)
# [   1705] a: 010110011000111010100111 ( 5869223) | b: 100001010111101100011000 ( 8747800) | res: 001011101011001000101100101100101001110010101000 ( 51342788959400)
# [   1715] a: 011100101100011001010011 ( 7521875) | b: 001000011001011101110110 ( 2201462) | res: 000011110000111101111000100101010101111101000010 ( 16559121981250)
# [   1725] a: 001111001111011100111110 ( 3995454) | b: 011100010101101010011011 ( 7428763) | res: 000110101111111010110110001100110111111010001010 ( 29681280843402)
# [   1735] a: 000100011000100100101110 ( 1149230) | b: 001101001010110000111010 ( 3451962) | res: 000000111001101110101001011110111111110001101100 (  3967098289260)
# [   1745] a: 010111000110010101110001 ( 6055281) | b: 110110100100111010110110 (14306998) | res: 010011101100101011001010110100101000110001010110 ( 86632893156438)
# [   1755] a: 011010010101000011010101 ( 6901973) | b: 111011000110010000110010 (15492146) | res: 011000010011111110111100100000001111110110011010 (106926373404058)
# [   1765] a: 110101000000101111100001 (13896673) | b: 010000101010000110000010 ( 4366722) | res: 001101110011000011010111001010001000100101000010 ( 60682907715906)
# [   1775] a: 111011001011110000000111 (15514631) | b: 000001010010111001110011 (  339571) | res: 000001001100101010100000010001001011100100100101 (  5268318763301)
# [   1785] a: 111110010100011010011011 (16336539) | b: 001000001101011100101000 ( 2152232) | res: 000111111111101001010100100111110011010100111000 ( 35160022005048)
# [   1795] a: 111110101011000000110001 (16429105) | b: 110110011011101010010101 (14269077) | res: 110101010011011000001111011101010010011010000101 (234428164286085)
# [   1805] a: 111010001111101010010010 (15268498) | b: 101110011011011110000111 (12171143) | res: 101010010000010000011001011111001000000011111110 (185835072553214)
# [   1815] a: 100011101100101100110101 ( 9358133) | b: 110010110101110101101100 (13327724) | res: 011100010110111100111111000101101111101101011100 (124722613779292)
# [   1825] a: 111010001100100001011110 (15255646) | b: 011000100000100011101101 ( 6424813) | res: 010110010010010011010001110000000110111100000110 ( 98014672744198)
# [   1835] a: 111010110010111111001110 (15413198) | b: 110001001111111110000001 (12910465) | res: 101101001111101101010100110110010100100011001110 (198991553317070)
# [   1845] a: 100010000101011011011111 ( 8935135) | b: 010001101001101111111001 ( 4627449) | res: 001001011001101011010010001011111000001111100111 ( 41346881520615)
# [   1855] a: 101011111011111110010010 (11517842) | b: 010100010110101101100111 ( 5335911) | res: 001101111110010101011000111110100001100110111110 ( 61458179824062)
# [   1865] a: 010000110011110110110001 ( 4406705) | b: 101110000010000101010101 (12067157) | res: 001100000101110100011000011111110100110011000101 ( 53176401087685)
# [   1875] a: 111000010110010110110100 (14771636) | b: 101100111101100000101110 (11786286) | res: 100111100101100001110011001011000010011001011000 (174102726583896)
# [   1885] a: 010110001000101001100110 ( 5802598) | b: 111111111011011111101100 (16758764) | res: 010110000111000101111000001010001000000000001000 ( 97244370468872)
# [   1895] a: 011000011010010111111011 ( 6399483) | b: 111010100110000010110100 (15360180) | res: 010110010110011010011010010101001101010001111100 ( 98297210786940)
# [   1905] a: 100010001110101110010100 ( 8973204) | b: 100100000101111011011001 ( 9461465) | res: 010011010011011100111101110100000000100001110100 ( 84899655583860)
# [   1915] a: 001000010101011001001111 ( 2184783) | b: 000011100011000000111000 (  929848) | res: 000000011101100011111111110010111011000101001000 (  2031516102984)
# [   1925] a: 110110101011000110001101 (14332301) | b: 011101110100111110110101 ( 7819189) | res: 011001011110110010011111111101010000101110110001 (112066970323889)
# [   1935] a: 011001001101110000010010 ( 6609938) | b: 110111010111111011111010 (14515962) | res: 010101110100010000000010010110011100010110010100 ( 95949608830356)
# [   1945] a: 111100000111101000100101 (15759909) | b: 110110011101111101100100 (14278500) | res: 110011001010100101100001101100101111000101110100 (225027860656500)
# [   1955] a: 100000011100111101111001 ( 8507257) | b: 000100001100101111111000 ( 1100792) | res: 000010001000010001100100110101011111000000111000 (  9364720447544)
# [   1965] a: 000000100011010111001100 (  144844) | b: 000100111001011101100110 ( 1283942) | res: 000000000010101101001100110000001100001101001000 (   185971295048)
# [   1975] a: 101100010111111001111111 (11632255) | b: 001010100010101110101000 ( 2763688) | res: 000111010011110100000101100100000101100001011000 ( 32147923556440)
# [   1985] a: 110011101100101001001000 (13552200) | b: 111111100000101000011001 (16648729) | res: 110011010011010011011011100010001001000100001000 (225626905153800)
# [   1995] a: 010100100101110011001010 ( 5397706) | b: 110100011101110100000100 (13753604) | res: 010000111000010011011100010011011101010100101000 ( 74237910832424)
# [   2005] a: 111010101101010110011111 (15390111) | b: 010010010111111101001011 ( 4816715) | res: 010000110110101110101111000111010111011010010101 ( 74129778505365)
# [   2015] a: 100100010111001101000100 ( 9532228) | b: 111110110111001111111001 (16479225) | res: 100011101101110111100111111011001010100100100100 (157083729963300)
# TEST #2 - Test completed!
# TEST #2 - Functional coverage: 96.88%
# 
# TOTAL FUNCTIONAL COVERAGE: 96.88%
# 
### TEST PASSED!
# 
# ** Note: $stop    : ../tb/alu_tb.sv(94)
#    Time: 2025 ns  Iteration: 0  Instance: /alu_tb
# Break at ../tb/alu_tb.sv line 94
quit -sim
# End time: 00:33:07 on Apr 18,2023, Elapsed time: 0:00:35
# Errors: 0, Warnings: 0
vsim work.alu_tb
# vsim work.alu_tb 
# Start time: 00:37:49 on Apr 18,2023
# ** Note: (vsim-8009) Loading existing optimized design _opt
# Loading sv_std.std
# Loading work.alu_tb_sv_unit(fast)
# Loading work.alu_tb(fast)
# Loading work.alu_wrap(fast)
# Loading work.alu_if(fast)
quit -sim
# End time: 00:38:20 on Apr 18,2023, Elapsed time: 0:00:31
# Errors: 0, Warnings: 0
vsim work.alu_wrap
# vsim work.alu_wrap 
# Start time: 00:38:22 on Apr 18,2023
# ** Note: (vsim-3812) Design is being optimized...
# Loading sv_std.std
# Loading work.alu_wrap(fast)
# Loading work.r8_mbe_multiplier(fast)
# ** Fatal: (vsim-3695) The interface port 'p' must be passed an actual interface.
#    Time: 0 ns  Iteration: 0  Instance: /alu_wrap File: ../tb/alu_wrap.sv Line: 26
# FATAL ERROR while loading design
# Error loading design
# End time: 00:38:24 on Apr 18,2023, Elapsed time: 0:00:02
# Errors: 1, Warnings: 0
